<svg width="372" height="624" viewBox="0 0 372 624" fill="none" xmlns="http://www.w3.org/2000/svg">
<g clip-path="url(#clip0)">
<mask id="mask0" mask-type="alpha" maskUnits="userSpaceOnUse" x="0" y="29" width="322" height="483">
<path d="M213.443 511.863C189.724 449.218 95.7207 468.287 84.6148 423.374C73.9614 377.976 124.412 374.825 124.254 339.462C124.412 304.097 21.0926 311.522 10.6721 275.384C0.442907 239.28 38.1139 230.996 78.5164 218.171C119.472 205.889 -10.5875 141.177 1.5246 76.2836C13.7232 11.587 113.77 11.9954 131.115 92.3032C149.108 172.5 165.254 197.316 189.811 164.773C214.195 132.542 282.191 144.219 253.082 236.479C224.157 329.202 308.221 300.182 320.926 360.059C332.882 420.613 241.456 438.9 213.443 511.863Z" fill="white"/>
</mask>
<g mask="url(#mask0)">
<path d="M213.443 511.863C189.724 449.218 95.7207 468.287 84.6148 423.374C73.9614 377.976 124.412 374.825 124.254 339.462C124.412 304.097 21.0926 311.522 10.6721 275.384C0.442907 239.28 38.1139 230.996 78.5164 218.171C119.472 205.889 -10.5875 141.177 1.5246 76.2836C13.7232 11.587 113.77 11.9954 131.115 92.3032C149.108 172.5 165.254 197.316 189.811 164.773C214.195 132.542 282.191 144.219 253.082 236.479C224.157 329.202 308.221 300.182 320.926 360.059C332.882 420.613 241.456 438.9 213.443 511.863Z" fill="#403F9F"/>
<path d="M213.443 511.863C189.724 449.218 95.7207 468.287 84.6148 423.374C73.9614 377.976 124.412 374.825 124.254 339.462C124.412 304.097 21.0926 311.522 10.6721 275.384C0.442907 239.28 38.1139 230.996 78.5164 218.171C119.472 205.889 -10.5875 141.177 1.5246 76.2836C13.7232 11.587 113.77 11.9954 131.115 92.3032C149.108 172.5 165.254 197.316 189.811 164.773C214.195 132.542 282.191 144.219 253.082 236.479C224.157 329.202 308.221 300.182 320.926 360.059C332.882 420.613 241.456 438.9 213.443 511.863Z" fill="url(#paint0_linear)"/>
</g>
<mask id="mask1" mask-type="alpha" maskUnits="userSpaceOnUse" x="219" y="336" width="103" height="88">
<path d="M309.06 336.075C314.489 342.17 318.752 349.813 320.926 360.059C321.835 364.661 322.146 369.019 321.934 373.175C306.841 389.706 280.267 406.734 235.549 423.374C229.51 414.451 224.175 406.133 219.484 398.364C272.661 377.552 298.206 356.215 309.06 336.075Z" fill="white"/>
</mask>
<g mask="url(#mask1)">
<path d="M309.06 336.075C314.489 342.17 318.752 349.813 320.926 360.059C321.835 364.661 322.146 369.019 321.934 373.175C306.841 389.706 280.267 406.734 235.549 423.374C229.51 414.451 224.175 406.133 219.484 398.364C272.661 377.552 298.206 356.215 309.06 336.075Z" fill="url(#paint1_linear)"/>
</g>
<path d="M73.6453 112.562C72.5688 111.555 72.5119 109.865 73.5182 108.788C74.5244 107.711 76.2128 107.654 77.2892 108.661C120.264 148.862 155.933 223.552 182.182 317.905C203.091 393.065 216.111 476.276 216.111 524.068C216.111 525.543 214.916 526.738 213.443 526.738C211.969 526.738 210.775 525.543 210.775 524.068C210.775 476.8 197.829 394.059 177.041 319.337C151.033 225.849 115.734 151.934 73.6453 112.562Z" fill="#403F9F"/>
<path d="M211.918 401.252C152.327 313.24 161.238 283.996 181.426 261.653C201.472 239.423 213.22 244.347 222.59 226.562C231.88 208.785 185.192 171.353 202.008 145.702C218.7 120.815 261.261 164.689 261.467 135.785C261.261 106.437 221.151 98.4287 208.106 48.0587C195.436 -1.7119 279.441 -26.6712 300.344 42.7188C320.921 112.076 287.473 141.654 313.303 145.702C339.02 150.514 368.234 135.855 371.238 167.824C373.928 199.957 300.181 219.141 300.344 248.685C300.181 277.762 371.162 341.967 211.918 401.252Z" fill="#A7A7EE"/>
<path d="M211.918 401.252C152.327 313.24 161.238 283.996 181.426 261.653C201.472 239.423 213.22 244.347 222.59 226.562C231.88 208.785 185.192 171.353 202.008 145.702C218.7 120.815 261.261 164.689 261.467 135.785C261.261 106.437 221.151 98.4287 208.106 48.0587C195.436 -1.7119 279.441 -26.6712 300.344 42.7188C320.921 112.076 287.473 141.654 313.303 145.702C339.02 150.514 368.234 135.855 371.238 167.824C373.928 199.957 300.181 219.141 300.344 248.685C300.181 277.762 371.162 341.967 211.918 401.252Z" fill="url(#paint2_linear)"/>
<path d="M214.586 501.171C214.592 502.646 213.403 503.847 211.93 503.853C210.456 503.86 209.256 502.67 209.25 501.195C209.217 493.828 209.038 489.612 208.134 471.945C206.277 435.654 206.454 414.123 210.307 385.951C215.506 347.952 227.254 308.732 247.624 265.843C272.352 213.953 281.557 167.335 277.736 126.616C274.715 94.4207 263.592 67.4637 247.962 48.2168C247.033 47.0725 247.206 45.391 248.35 44.461C249.494 43.531 251.174 43.7048 252.103 44.8491C268.395 64.9102 279.928 92.8638 283.049 126.116C286.964 167.834 277.569 215.411 252.442 268.139C232.308 310.531 220.718 349.222 215.594 386.675C211.796 414.44 211.622 435.688 213.463 471.672C214.373 489.439 214.553 493.685 214.586 501.171Z" fill="#A7A7EE"/>
<path d="M184.475 494.318H240.885C242.148 494.318 243.172 495.342 243.172 496.606V621.711C243.172 622.975 242.148 624 240.885 624H184.475C183.212 624 182.188 622.975 182.188 621.711V496.606C182.188 495.342 183.212 494.318 184.475 494.318Z" fill="#E6E6EF"/>
<path d="M184.475 494.318H240.885C242.148 494.318 243.172 495.342 243.172 496.606V621.711C243.172 622.975 242.148 624 240.885 624H184.475C183.212 624 182.188 622.975 182.188 621.711V496.606C182.188 495.342 183.212 494.318 184.475 494.318Z" fill="url(#paint3_linear)"/>
<path fill-rule="evenodd" clip-rule="evenodd" d="M195.91 524.831H229.451C230.714 524.831 231.738 525.856 231.738 527.12V560.685C231.738 561.948 230.714 562.973 229.451 562.973H195.91C194.647 562.973 193.623 561.948 193.623 560.685V527.12C193.623 525.856 194.647 524.831 195.91 524.831Z" fill="#F7F7F8"/>
</g>
<defs>
<linearGradient id="paint0_linear" x1="161.361" y1="29.7419" x2="161.361" y2="511.863" gradientUnits="userSpaceOnUse">
<stop stop-color="#403F9F" stop-opacity="0"/>
<stop offset="1" stop-opacity="0.4"/>
</linearGradient>
<linearGradient id="paint1_linear" x1="219.484" y1="348.115" x2="310.175" y2="425.237" gradientUnits="userSpaceOnUse">
<stop/>
<stop offset="1" stop-color="#403F9F" stop-opacity="0"/>
</linearGradient>
<linearGradient id="paint2_linear" x1="268.749" y1="-0.00183091" x2="259.204" y2="401.084" gradientUnits="userSpaceOnUse">
<stop stop-color="#A7A7EE" stop-opacity="0"/>
<stop offset="1" stop-color="#464D89" stop-opacity="0.5"/>
</linearGradient>
<linearGradient id="paint3_linear" x1="212.68" y1="494.318" x2="212.68" y2="624" gradientUnits="userSpaceOnUse">
<stop stop-color="#E6E6EF" stop-opacity="0"/>
<stop offset="1" stop-opacity="0.1"/>
</linearGradient>
<clipPath id="clip0">
<rect width="372" height="624" fill="white"/>
</clipPath>
</defs>
</svg>
